2688 2016
2016 2688
768 1024
2250 3000
3000 2250
3000 2250
3000 2250
2250 3000
2250 3000
2250 3000
2250 3000
2250 3000
3000 2250
2250 3000
2250 3000
3000 2250
2348 3000
2175 2900
3000 2000
2000 3000
2000 3000
2000 3000
3000 2000
2000 3000
3000 2000
1704 2272
1349 875
3000 2000
3000 2000
3000 2000
2000 3000
2000 3000
2985 1990
2250 3000
2048 1536
2560 1920
800 600
1024 1536
1536 1024
960 1280
1024 1536
2048 1536
2048 1536
2048 1371
1704 2272
1704 2272
2272 1704
2272 1704
2272 1704
2272 1704
2272 1704
2272 1704
1704 2272
1704 2272
1704 2272
1704 2272
1280 849
3000 2000
2048 1536
1536 2048
1536 2048
1536 2048
1536 2048
1360 2048
1360 2048
2048 1536
3000 2250
960 1280
1280 960
1280 960
960 1280
1280 960
1280 960
1704 2272
1944 2592
2592 1944
1024 768
1024 768
960 1280
2000 3000
2250 3000
750 1000
1827 2697
1200 1600
1200 1600
1280 960
2592 1944
1944 2592
1944 2592
2250 3000
1536 2304
2304 1536
1536 2304
2008 3000
2250 3000
2250 3000
3000 2250
1728 2592
683 1024
