1201
20644 40466
26829 46303
4841 5576
12958 20775
1047 1305
2058 3498
5278 6043
2956 3501
27462 24615
20240 24568
1428 2487
1429 2488
2402 2824
19282 22903
13798 15329
9623 14795
9616 10561
4078 4892
3274 2667
4609 5345
4391 5138
6529 7349
4404 5157
3035 3575
3038 3588
26140 35599
3043 5151
3044 5152
25049 20879
1402 1669
1403 1670
3193 3795
2228 2580
2090 3537
3027 3565
880 1079
6495 7310
3030 3577
922 1750
885 1089
6613 7480
6614 7481
4328 5084
5855 29604
4339 5107
3025 3567
126 123
1419 2459
4068 7087
4069 7088
12896 31759
3022 5123
2946 3496
2947 3497
4241 7271
1408 1679
1409 1680
4288 7313
12805 14151
4226 5015
1354 1626
2783 4871
405 467
4378 5153
592 699
593 700
13143 14427
3023 3579
6608 7475
13123 21216
2118 2473
1410 1682
17762 20565
6606 7476
4220 5012
370 687
1346 2407
3006 3560
3018 3580
6408 5011
4231 5028
18084 20897
2111 2470
2112 2471
1406 2445
2103 2456
18070 32352
9260 14253
6411 7251
4191 4983
1363 1644
4218 5013
3005 3561
3776 29654
24413 31747
579 684
881 1684
1411 1684
6399 10079
6412 7254
844 1050
4183 7201
4184 7202
863 1074
864 1075
1323 1611
1324 1612
1414 1689
2939 3493
882 1090
1358 1641
1359 1642
9120 10064
1357 2417
9124 10068
1329 2392
1994 3449
2048 2424
6396 7230
577 439
12788 20602
12789 20603
17667 31534
2020 3474
24330 31707
6354 7205
2008 2379
17554 31260
831 1591
2806 3403
12487 20207
17413 20207
23933 20016
4063 4880
1954 3402
6192 7102
6196 7104
17422 30921
4071 7101
17414 20220
17415 20221
823 1029
6179 7086
1295 1576
1296 1577
3980 9827
2769 3379
1932 3380
3981 4825
8793 9832
8815 13876
813 1024
12425 20108
2744 4847
8803 13862
12418 13862
1272 1559
2733 3351
2736 3352
2735 2304
8801 9844
1278 1561
2755 3356
3984 4835
555 1020
1279 2306
2761 7048
4041 7056
8836 20114
1914 2307
1921 3367
6139 9862
8918 20197
1297 2326
17429 20193
1918 2310
6160 9873
4035 4854
17382 20118
17279 9759
2774 3376
1282 2312
2829 4899
4104 4903
4096 4899
4097 4900
4110 7119
4102 7115
8967 13971
4111 4906
4113 4908
2837 4910
835 1587
17512 20275
1979 3420
4123 4926
8875 9876
2847 4922
820 1572
1280 2311
2795 3393
12670 14057
8929 9913
8930 9914
4070 7083
4080 4889
4150 4939
827 1030
272 435
12573 20286
2816 4894
4088 4898
270 429
17848 31704
4092 7116
1336 2385
2826 4901
2827 4902
4086 7111
4091 7117
24810 31776
1310 1583
17491 31028
4116 4924
2839 4924
6272 7141
2840 4925
24987 20710
9026 14047
24957 32013
25008 20729
6357 14098
4303 5033
9293 10136
2024 3463
17588 31270
80 109
584 1053
18222 20945
9268 10122
9269 10123
12934 20693
4155 7156
9276 10132
6496 14218
13705 15186
4022 4851
2129 2441
1395 2429
1396 2430
6314 10007
7636 8514
3053 3608
3054 3609
3408 4079
4284 7252
889 1687
14823 25089
299 487
435 487
7082 8042
7083 8043
2290 3883
13037 10187
13061 14317
2060 2419
9959 11058
9960 11059
1986 2353
2094 3522
2100 3542
24903 31973
1608 1918
25172 32623
4408 5135
4409 5137
9306 10181
6499 7277
7167 11081
56 80
379 441
18247 20922
4833 7966
24722 32004
4426 5164
4876 5603
9286 10137
1392 1638
2327 2701
3465 4162
5181 5882
5182 5883
7531 8407
18031 32074
999 804
10449 8483
7556 8429
2406 2830
6374 10058
4392 5082
4393 5082
906 1696
4340 5090
19822 23930
5213 5939
6688 7609
9242 10109
7136 11042
1446 1715
17878 20650
404 462
7544 11556
18046 32114
18509 21272
25164 32608
1638 1945
1639 1946
1531 1842
4920 8047
4921 8048
9931 11025
9932 11026
1389 1640
7560 8432
2088 3518
18167 32591
3470 2815
7120 11018
2242 1786
890 1667
891 1668
2984 5040
1438 1700
20582 25035
2206 2525
644 782
4411 7356
9278 10154
10712 8736
18029 32081
13985 15646
12922 14191
632 766
1038 1287
1039 1288
20587 16661
20588 16662
204 236
205 237
1360 1628
1349 2400
18725 21384
2199 3662
6269 9958
2929 3482
5321 6113
229 372
3176 3715
18515 33290
3471 4169
4870 5580
6755 10381
10478 11665
14806 16688
10405 11574
3120 3667
984 1206
4846 5570
7036 10907
15971 18540
3177 3716
18014 14207
903 1094
7568 8435
4636 7607
15369 12435
2194 2513
7012 10883
2985 5041
5239 4181
9311 14279
12825 14158
24930 32050
603 1076
604 1077
22443 28450
9250 10124
1328 1613
5326 6118
389 447
144 158
4430 5121
9349 14296
1641 1949
4235 5010
2113 3538
9804 10797
2001 3450
17944 31900
2367 2775
1319 2354
6521 7293
4254 5043
2089 3520
2914 3461
407 456
3391 2761
1383 2425
1543 2691
2197 3658
1440 1716
2980 5036
16239 13101
10493 11687
955 1159
1437 1096
9176 7235
904 1096
1462 1735
11164 12576
6324 10017
2187 3651
12930 20711
3184 5351
1744 2088
10438 11621
25104 36101
886 1071
5016 8136
27296 38812
2983 5064
3003 5062
9052 14079
2862 4934
6570 7368
2191 3659
6557 7332
1622 1929
965 1172
948 1140
7659 8533
3425 2786
3426 2787
14841 16717
6648 7516
6487 7266
5302 4224
1041 1291
1042 1292
1043 1293
12693 14081
4410 5099
29107 44386
29108 44387
4272 7256
3214 3805
3700 2154
4453 5185
1374 1649
19303 35677
3000 3541
2193 3655
854 1649
8092 6498
6577 7369
3481 4176
5294 8539
1449 2509
1450 2510
7629 8504
17890 31997
2522 3024
7905 8801
10473 11641
7558 8416
2898 4950
3443 4109
2412 1959
13667 10727
2249 2599
7583 8448
1548 1865
3430 4095
8109 9208
14863 16721
3396 2763
1621 1912
2973 5025
3094 3636
10504 16440
6463 10110
6464 10111
7215 5688
4300 7286
9018 14043
5229 5953
460 514
2379 1900
4694 5401
19215 15706
3710 4612
894 1078
3110 3665
198 227
9016 14040
640 1182
6477 10117
6478 10118
648 785
2139 2492
29274 44764
3100 3656
18304 32704
2160 2481
9251 14220
1027 1256
20132 16287
18290 32681
901 1697
902 1698
1399 1654
1400 1655
5353 6126
25532 32987
872 1654
873 1655
26645 32287
2958 3510
2959 3511
6721 7588
6722 7589
2232 1762
4856 5546
4857 5547
13877 22645
3270 3877
1623 1271
10529 8511
10182 11240
3483 4177
2413 2838
2414 2839
1382 1635
4181 4962
5358 6127
3090 3624
29310 44774
24617 31810
8128 9239
1752 1422
2190 2521
4423 5117
1628 1932
1530 1835
22088 27932
2184 3653
5595 6530
3046 3552
5366 6129
1051 1298
14108 23162
13062 21024
2154 2484
2533 4463
19205 22398
711 572
6467 7258
6468 7259
4334 7347
986 1205
8087 9165
14637 24445
295 343
3338 3931
4439 5168
1765 2115
1518 1813
28890 43793
1743 2087
1533 1832
1506 1796
3102 5179
1394 2432
7041 10819
7229 34479
6880 7819
2180 3641
7042 10829
5052 5670
3380 4008
2268 5458
14708 11730
378 440
7241 11048
426 477
6444 10088
3299 8008
5095 5738
5096 5739
2153 3573
3475 4139
1444 2496
17919 20684
1009 1221
17689 31519
2138 3606
5009 8069
7264 11074
7265 11075
8133 6535
5088 5732
21021 40271
1010 1222
5066 8128
2181 3654
9855 7909
3012 5086
18525 21279
17969 32032
646 776
3087 3630
3088 3631
19276 35738
6709 7568
27043 23659
1155 924
19162 35257
3103 3663
3104 3664
399 453
6456 7250
6434 7243
4286 5053
5074 5710
9886 10911
841 1047
1686 1968
3535 4205
6759 10441
274 438
21042 24893
10120 15531
19559 15531
470 525
7767 8585
28276 25016
28277 25017
7312 11124
8131 9231
2074 2422
2075 2423
5479 8658
1469 2552
10819 8635
2253 2602
18265 32669
84 111
24742 32002
1093 1333
1442 1719
1443 1720
7090 10943
2144 2491
22894 29208
13853 11037
5589 4467
1055 1296
8151 6544
2346 3983
10413 16214
14386 16166
5345 8588
1073 1316
4515 5246
3287 3913
6661 7531
9911 15299
13817 15299
2321 2683
25664 37117
4672 5442
3344 5698
9639 14905
5061 5729
97 89
9949 11000
19231 35757
4696 5432
21025 25281
3295 3922
26389 35651
9723 7765
19629 45815
4247 3499
4681 5413
4918 5618
9304 10170
9305 10171
469 523
6804 7743
2415 2836
9319 10179
12694 14082
3175 3749
13887 15464
3709 3135
4517 7495
4518 7496
6774 7714
7105 8037
2127 2465
9607 10534
14600 11640
6763 7694
25200 32635
7232 8133
4253 7270
10990 12262
25875 33986
3353 2719
13497 21977
13498 21978
1058 1312
4638 5353
4639 5354
5026 3958
6497 7295
9829 15142
18672 21515
1580 1885
2349 3988
2350 3989
6742 7683
3322 3943
4977 5649
6954 7916
21434 17536
25946 34997
6730 10449
5257 8460
2142 3611
14159 11328
24265 20522
7224 8126
11438 12829
4513 7489
4514 7490
2365 2755
13883 15453
11422 12810
7619 8459
4854 5578
4855 5579
7540 15103
2096 2440
7027 7990
7239 8139
9550 14613
1044 1278
1054 1308
7678 8526
655 800
13768 15256
4591 7660
4592 7661
9177 14174
12852 14174
5069 5735
8162 6635
4883 5589
2150 2495
2151 2494
3332 5677
7249 8145
18866 21757
3219 3817
3220 3818
4707 5439
5334 6088
6874 7818
2351 2723
7734 8563
4904 5615
6916 7877
866 1656
867 1657
7268 8153
13723 22513
4718 5447
25335 36805
4729 5453
4730 5454
10872 12138
15140 12138
394 451
21290 17920
24542 31721
892 1086
3343 5690
5337 6087
3587 12677
7280 8570
4909 8027
2030 2395
20123 16267
4916 5629
9683 7788
10584 11742
6951 5537
3346 5697
4933 8052
1625 1924
7092 10968
25657 21292
19219 35747
18982 34557
26564 32989
27754 39836
2280 2636
7753 8579
7754 8580
25656 33346
6992 7952
13733 22517
4823 5545
13728 14769
5343 6091
20474 16504
2029 3476
14457 16271
10593 11749
4367 5103
26157 22167
4947 3927
4948 3928
3358 5717
1520 1186
1521 1187
24533 31706
7752 8575
969 1186
970 1187
3232 3829
3233 3830
4967 8078
3523 4217
19774 38450
19801 38450
3223 3814
5336 8583
4745 3814
4827 7929
5058 5720
3522 4223
6896 7838
6897 7839
7760 8578
2157 3628
2293 2649
2294 2650
2295 2651
2098 3539
10801 9681
2276 3843
2277 3844
7009 7974
26483 36072
10601 11761
4970 5653
4861 5573
7034 7989
26899 23500
7782 8608
6432 10089
18815 34059
4318 5068
7713 8538
13765 22591
1523 1191
1524 1192
975 1191
976 1192
3057 3604
3244 3852
3245 3853
7141 11015
237 40309
4975 5652
14156 15807
1398 2436
4865 5572
7786 8612
20507 24719
13642 14996
6987 7945
9204 10108
7153 8082
7154 8083
7019 7978
9831 10843
9832 10844
10689 8614
5057 8152
25768 11503
18992 34833
26762 36827
10099 15580
2034 3484
4773 5489
4774 5491
4837 7933
4956 5640
25818 33669
5364 8592
11622 4477
6438 7246
4842 5557
4843 5558
19078 22154
3669 4503
5363 8591
11600 9199
13675 22233
4262 7265
21756 17946
7140 8065
11615 12966
13970 15553
21731 17946
3361 3975
6960 7910
4835 5552
4860 7956
10107 11168
2285 2639
2286 2640
2287 2641
3360 3972
3068 3632
1430 1705
4936 5634
383 702
963 1177
964 1178
2931 4987
16316 12977
4659 5374
4821 5540
10066 15518
4795 5521
13422 21605
9770 10737
6775 5369
4666 5378
4786 5507
2966 3508
3340 5675
20675 39968
4705 7776
12880 14193
2269 2625
2270 2626
9211 14193
14057 15645
6915 5505
4744 5462
4906 5598
22434 44856
4732 5450
21201 25436
26304 33846
9533 10445
3202 3787
3203 3820
5478 6167
10127 11193
7811 8562
25779 33746
29621 28138
25814 33846
3224 3787
3225 3820
4678 5393
5072 5733
11449 12717
18777 21619
5425 8630
16032 18460
29235 44149
6536 10173
14893 24796
18952 14776
22029 27573
2538 3030
29476 44691
22979 29306
4858 5563
4859 5564
18955 21735
28909 43462
6986 10834
3518 4188
4389 7367
12874 20671
1667 1310
18734 14640
18735 14641
4611 7664
21613 42822
1119 42742
6748 7679
3079 3637
3080 3638
7196 8087
4547 5272
4548 5273
1084 1327
1433 2476
3597 2967
13470 14730
13471 14731
7219 8100
9579 10484
4785 7867
4805 7878
4806 7879
6752 7682
6460 14208
2470 2875
15337 2035
2924 4975
5522 2035
11002 2035
2492 2035
9621 10536
9622 10537
4535 5259
9324 10178
3061 5149
945 1139
4779 5493
18233 32664
4651 5362
1780 2117
4750 5464
4551 7541
6873 7802
2169 2500
2170 2501
6786 10520
6843 10607
6822 7802
11641 18696
1754 1415
22100 18469
2344 2687
7687 8478
897 1083
12755 14119
15085 25419
15633 17870
3741 4635
3742 4636
14228 32892
18249 20994
30157 29141
28319 25387
3153 5290
1065 1300
1805 1456
10696 11796
488 278
489 279
2136 2480
3526 4215
10636 11711
874 1662
875 1663
29967 6701
2162 3627
4196 7204
4263 5026
16538 28332
1150 914
11243 42955
6440 10096
14403 11442
20846 24922
4398 5110
5339 6049
6641 7447
7783 8551
19982 16025
28077 40074
4558 5275
1149 2095
1767 2095
1142 1414
5324 6019
10672 11763
2167 2498
10648 11715
5419 8626
14213 23590
14288 8297
10280 8297
27117 23934
4550 7527
14933 16588
3731 3125
7849 11868
689 1317
11356 43281
18607 33404
3093 3657
1796 2141
1107 2032
12729 14100
386 706
1069 1299
4556 5268
3313 5606
20207 24219
5380 6067
1018 1241
7859 8628
10349 8347
12891 20687
10660 11723
6867 5414
147 160
12703 20459
6683 10338
7494 8296
3086 5170
15139 16996
14020 15558
2376 2767
2377 2768
7227 8094
14025 15557
5362 6051
28114 40090
15147 16999
7498 8320
5132 4021
10633 11673
956 1143
16501 9314
2148 2479
1019 1239
1593 1239
232 267
2336 2685
633 754
634 755
15161 17003
2079 3505
2080 3506
2342 2694
7742 8495
1338 1619
13880 11035
12998 14278
5391 6074
6948 7854
3020 5081
28161 40174
7880 11880
1553 1859
4190 4970
4887 7936
6952 10742
4929 5588
2149 3593
208 240
400 454
3206 3772
5381 6056
19649 23305
3077 5159
5394 6079
5395 6080
17637 20441
2175 2511
10033 11067
10728 8577
21311 25477
5025 5651
7251 11077
5497 2897
7842 8607
6712 7583
10056 15449
10057 15450
28514 23643
6454 10112
200 230
4310 14240
1436 2478
9944 15269
